[
 {
   "US": 30,
   "UK": 30,
   "Europe": 40,
   "S-M-L": "XXS"
 },
 {
   "US": 32,
   "UK": 32,
   "Europe": 42,
   "S-M-L": "XS"
 },
 {
   "US": 34,
   "UK": 34,
   "Europe": 44,
   "S-M-L": "S"
 },
 {
   "US": 36,
   "UK": 36,
   "Europe": 46,
   "S-M-L": "S"
 },
 {
   "US": 38,
   "UK": 38,
   "Europe": 48,
   "S-M-L": "M"
 },
 {
   "US": 40,
   "UK": 40,
   "Europe": 50,
   "S-M-L": "M"
 },
 {
   "US": 42,
   "UK": 42,
   "Europe": 52,
   "S-M-L": "L"
 },
 {
   "US": 44,
   "UK": 44,
   "Europe": 54,
   "S-M-L": "L"
 },
 {
   "US": 46,
   "UK": 46,
   "Europe": 56,
   "S-M-L": "XL"
 },
 {
   "US": 48,
   "UK": 48,
   "Europe": 58,
   "S-M-L": "XXL"
 },
 {
   "US": 50,
   "UK": 60,
   "Europe": 60,
   "S-M-L": "XXXL"
 }
]
